[
      {
        "name": "app_id", 
        "type": "STRING"
      }, 
      {
        "name": "platform", 
        "type": "STRING"
      }, 
      {
        "name": "etl_tstamp", 
        "type": "TIMESTAMP"
      }, 
      {
        "name": "collector_tstamp", 
        "type": "TIMESTAMP"
      }, 
      {
        "name": "dvce_tstamp", 
        "type": "TIMESTAMP"
      }, 
      {
        "name": "event", 
        "type": "STRING"
      }, 
      {
        "name": "event_id", 
        "type": "STRING"
      }, 
      {
        "name": "txn_id", 
        "type": "INTEGER"
      }, 
      {
        "name": "name_tracker", 
        "type": "STRING"
      }, 
      {
        "name": "v_tracker", 
        "type": "STRING"
      }, 
      {
        "name": "v_collector", 
        "type": "STRING"
      }, 
      {
        "name": "v_etl", 
        "type": "STRING"
      }, 
      {
        "name": "user_id", 
        "type": "STRING"
      }, 
      {
        "name": "user_ipaddress", 
        "type": "STRING"
      }, 
      {
        "name": "user_fingerprint", 
        "type": "STRING"
      }, 
      {
        "name": "domain_userid", 
        "type": "STRING"
      }, 
      {
        "name": "domain_sessionidx", 
        "type": "INTEGER"
      }, 
      {
        "name": "network_userid", 
        "type": "STRING"
      }, 
      {
        "name": "geo_country", 
        "type": "STRING"
      }, 
      {
        "name": "geo_region", 
        "type": "STRING"
      }, 
      {
        "name": "geo_city", 
        "type": "STRING"
      }, 
      {
        "name": "geo_zipcode", 
        "type": "STRING"
      }, 
      {
        "name": "geo_latitude", 
        "type": "FLOAT"
      }, 
      {
        "name": "geo_longitude", 
        "type": "FLOAT"
      }, 
      {
        "name": "geo_region_name", 
        "type": "STRING"
      }, 
      {
        "name": "ip_isp", 
        "type": "STRING"
      }, 
      {
        "name": "ip_organization", 
        "type": "STRING"
      }, 
      {
        "name": "ip_domain", 
        "type": "STRING"
      }, 
      {
        "name": "ip_netspeed", 
        "type": "STRING"
      }, 
      {
        "name": "page_url", 
        "type": "STRING"
      }, 
      {
        "name": "page_title", 
        "type": "STRING"
      }, 
      {
        "name": "page_referrer", 
        "type": "STRING"
      }, 
      {
        "name": "page_urlscheme", 
        "type": "STRING"
      }, 
      {
        "name": "page_urlhost", 
        "type": "STRING"
      }, 
      {
        "name": "page_urlport", 
        "type": "INTEGER"
      }, 
      {
        "name": "page_urlpath", 
        "type": "STRING"
      }, 
      {
        "name": "page_urlquery", 
        "type": "STRING"
      }, 
      {
        "name": "page_urlfragment", 
        "type": "STRING"
      }, 
      {
        "name": "refr_urlscheme", 
        "type": "STRING"
      }, 
      {
        "name": "refr_urlhost", 
        "type": "STRING"
      }, 
      {
        "name": "refr_urlport", 
        "type": "INTEGER"
      }, 
      {
        "name": "refr_urlpath", 
        "type": "STRING"
      }, 
      {
        "name": "refr_urlquery", 
        "type": "STRING"
      }, 
      {
        "name": "refr_urlfragment", 
        "type": "STRING"
      }, 
      {
        "name": "refr_medium", 
        "type": "STRING"
      }, 
      {
        "name": "refr_source", 
        "type": "STRING"
      }, 
      {
        "name": "refr_term", 
        "type": "STRING"
      }, 
      {
        "name": "mkt_medium", 
        "type": "STRING"
      }, 
      {
        "name": "mkt_source", 
        "type": "STRING"
      }, 
      {
        "name": "mkt_term", 
        "type": "STRING"
      }, 
      {
        "name": "mkt_content", 
        "type": "STRING"
      }, 
      {
        "name": "mkt_campaign", 
        "type": "STRING"
      }, 
      {
        "name": "contexts", 
        "type": "STRING"
      }, 
      {
        "name": "se_category", 
        "type": "STRING"
      }, 
      {
        "name": "se_action", 
        "type": "STRING"
      }, 
      {
        "name": "se_label", 
        "type": "STRING"
      }, 
      {
        "name": "se_property", 
        "type": "STRING"
      }, 
      {
        "name": "se_value", 
        "type": "FLOAT"
      }, 
      {
        "name": "unstruct_event", 
        "type": "STRING"
      }, 
      {
        "name": "tr_orderid", 
        "type": "STRING"
      }, 
      {
        "name": "tr_affiliation", 
        "type": "STRING"
      }, 
      {
        "name": "tr_total", 
        "type": "FLOAT"
      }, 
      {
        "name": "tr_tax", 
        "type": "FLOAT"
      }, 
      {
        "name": "tr_shipping", 
        "type": "FLOAT"
      }, 
      {
        "name": "tr_city", 
        "type": "STRING"
      }, 
      {
        "name": "tr_state", 
        "type": "STRING"
      }, 
      {
        "name": "tr_country", 
        "type": "STRING"
      }, 
      {
        "name": "ti_orderid", 
        "type": "STRING"
      }, 
      {
        "name": "ti_sku", 
        "type": "STRING"
      }, 
      {
        "name": "ti_name", 
        "type": "STRING"
      }, 
      {
        "name": "ti_category", 
        "type": "STRING"
      }, 
      {
        "name": "ti_price", 
        "type": "FLOAT"
      }, 
      {
        "name": "ti_quantity", 
        "type": "INTEGER"
      }, 
      {
        "name": "pp_xoffset_min", 
        "type": "INTEGER"
      }, 
      {
        "name": "pp_xoffset_max", 
        "type": "INTEGER"
      }, 
      {
        "name": "pp_yoffset_min", 
        "type": "INTEGER"
      }, 
      {
        "name": "pp_yoffset_max", 
        "type": "INTEGER"
      }, 
      {
        "name": "useragent", 
        "type": "STRING"
      }, 
      {
        "name": "br_name", 
        "type": "STRING"
      }, 
      {
        "name": "br_family", 
        "type": "STRING"
      }, 
      {
        "name": "br_version", 
        "type": "STRING"
      }, 
      {
        "name": "br_type", 
        "type": "STRING"
      }, 
      {
        "name": "br_renderengine", 
        "type": "STRING"
      }, 
      {
        "name": "br_lang", 
        "type": "STRING"
      }, 
      {
        "name": "br_features_pdf", 
        "type": "BOOLEAN"
      }, 
      {
        "name": "br_features_flash", 
        "type": "BOOLEAN"
      }, 
      {
        "name": "br_features_java", 
        "type": "BOOLEAN"
      }, 
      {
        "name": "br_features_director", 
        "type": "BOOLEAN"
      }, 
      {
        "name": "br_features_quicktime", 
        "type": "BOOLEAN"
      }, 
      {
        "name": "br_features_realplayer", 
        "type": "BOOLEAN"
      }, 
      {
        "name": "br_features_windowsmedia", 
        "type": "BOOLEAN"
      }, 
      {
        "name": "br_features_gears", 
        "type": "BOOLEAN"
      }, 
      {
        "name": "br_features_silverlight", 
        "type": "BOOLEAN"
      }, 
      {
        "name": "br_cookies", 
        "type": "BOOLEAN"
      }, 
      {
        "name": "br_colordepth", 
        "type": "STRING"
      }, 
      {
        "name": "br_viewwidth", 
        "type": "INTEGER"
      }, 
      {
        "name": "br_viewheight", 
        "type": "INTEGER"
      }, 
      {
        "name": "os_name", 
        "type": "STRING"
      }, 
      {
        "name": "os_family", 
        "type": "STRING"
      }, 
      {
        "name": "os_manufacturer", 
        "type": "STRING"
      }, 
      {
        "name": "os_timezone", 
        "type": "STRING"
      }, 
      {
        "name": "dvce_type", 
        "type": "STRING"
      }, 
      {
        "name": "dvce_ismobile", 
        "type": "BOOLEAN"
      }, 
      {
        "name": "dvce_screenwidth", 
        "type": "INTEGER"
      }, 
      {
        "name": "dvce_screenheight", 
        "type": "INTEGER"
      }, 
      {
        "name": "doc_charset", 
        "type": "STRING"
      }, 
      {
        "name": "doc_width", 
        "type": "INTEGER"
      }, 
      {
        "name": "doc_height", 
        "type": "INTEGER"
      }
    ]